<svg width="45" height="45" viewBox="0 0 45 45" fill="none" xmlns="http://www.w3.org/2000/svg">
<path d="M0 0V45H45V0H0ZM36.51 28.2758C36.5107 29.4845 36.3131 30.6852 35.925 31.83C35.5453 32.9364 34.9287 33.9465 34.1181 34.7898C32.5789 36.3738 30.4065 37.2227 27.8357 37.2444H17.7827C17.7182 37.2444 17.6538 37.2456 17.5902 37.2456C16.4233 37.2643 15.2605 37.103 14.1428 36.7674C12.9562 36.4223 11.8815 35.7705 11.0271 34.8778C10.1726 33.9851 9.56854 32.8829 9.2757 31.6824C8.97817 30.4951 8.87353 29.2676 8.9658 28.047C8.9684 27.8227 8.97665 27.6038 8.99055 27.3903L9.15435 17.5673C9.13379 16.6677 9.23102 15.7693 9.44355 14.895C9.73328 13.6773 10.3374 12.557 11.1957 11.6459C11.9413 10.8746 12.8563 10.2878 13.8683 9.9318C14.9557 9.558 16.1004 9.37856 17.25 9.4017L23.8097 9.30075L23.8715 9.30255C24.9186 9.32357 25.952 9.54422 26.9165 9.95265C27.8324 10.3437 28.6566 10.9216 29.3364 11.6495C30.5924 13.0153 31.2882 14.8039 31.2855 16.6595C31.4032 17.8122 31.3359 18.9763 31.0862 20.1078C31.262 20.1139 31.4308 20.1226 31.5926 20.1338C32.6541 20.2088 34.0091 20.4255 35.0745 21.4583C35.5046 21.8778 35.8397 22.3849 36.0572 22.945C36.2262 23.385 36.3399 23.8444 36.3954 24.3125C36.4784 25.1302 36.5117 25.9523 36.4952 26.7741C36.497 27.1958 36.4991 27.6741 36.509 28.1909L36.5097 28.2336L36.51 28.2758Z" fill="#F2F2F2"/>
<path d="M28.3218 30.7998H17.1045C16.4697 30.7998 15.8609 30.5477 15.412 30.0988C14.9631 29.6499 14.7109 29.0411 14.7109 28.4063C14.7109 27.7715 14.9631 27.1627 15.412 26.7138C15.8609 26.2649 16.4697 26.0127 17.1045 26.0127H28.3218C28.6361 26.0127 28.9474 26.0746 29.2378 26.1949C29.5282 26.3152 29.792 26.4915 30.0143 26.7138C30.2365 26.936 30.4128 27.1999 30.5331 27.4903C30.6534 27.7807 30.7153 28.092 30.7153 28.4063C30.7153 28.7206 30.6534 29.0319 30.5331 29.3223C30.4128 29.6127 30.2365 29.8765 30.0143 30.0988C29.792 30.321 29.5282 30.4973 29.2378 30.6176C28.9474 30.7379 28.6361 30.7998 28.3218 30.7998ZM23.3512 19.9203H23.3124L17.7037 19.8312C17.3895 19.8262 17.0792 19.7594 16.7908 19.6345C16.5023 19.5096 16.2413 19.3291 16.0226 19.1034C15.8039 18.8776 15.6318 18.611 15.5161 18.3187C15.4005 18.0264 15.3435 17.7142 15.3485 17.4C15.3535 17.0857 15.4204 16.7754 15.5452 16.487C15.6701 16.1985 15.8506 15.9375 16.0764 15.7188C16.3021 15.5001 16.5688 15.328 16.861 15.2124C17.1533 15.0967 17.4655 15.0397 17.7798 15.0447L23.3884 15.1338C24.0198 15.1438 24.6217 15.4029 25.0629 15.8547C25.5041 16.3064 25.7489 16.9142 25.744 17.5457C25.7391 18.1771 25.4849 18.7811 25.0367 19.2259C24.5885 19.6707 23.9827 19.9205 23.3512 19.9206V19.9203Z" fill="#F2F2F2"/>
</svg>
