<svg width="61" height="61" viewBox="0 0 61 61" fill="none" xmlns="http://www.w3.org/2000/svg">
<path d="M38.8737 34.4971H22.5013C21.5748 34.4971 20.6862 34.8651 20.031 35.5203C19.3759 36.1754 19.0078 37.064 19.0078 37.9905C19.0078 38.9171 19.3759 39.8056 20.031 40.4608C20.6862 41.116 21.5748 41.484 22.5013 41.484H38.8737C39.8002 41.484 40.6888 41.116 41.3439 40.4608C41.9991 39.8056 42.3672 38.9171 42.3672 37.9905C42.3672 37.064 41.9991 36.1754 41.3439 35.5203C40.6888 34.8651 39.8002 34.4971 38.8737 34.4971Z" fill="black"/>
<path d="M30.5 0C24.4677 0 18.5708 1.78879 13.5551 5.14018C8.53942 8.49156 4.63016 13.255 2.32169 18.8282C0.0132152 24.4013 -0.590786 30.5338 0.586062 36.4502C1.76291 42.3667 4.66775 47.8012 8.93325 52.0667C13.1988 56.3322 18.6333 59.2371 24.5497 60.4139C30.4662 61.5908 36.5987 60.9868 42.1718 58.6783C47.745 56.3698 52.5084 52.4606 55.8598 47.4449C59.2112 42.4292 61 36.5323 61 30.5C61 22.4109 57.7866 14.6531 52.0667 8.93324C46.3469 3.21338 38.5891 0 30.5 0V0ZM50.8228 37.8013C50.8237 39.5656 50.5352 41.3181 49.9688 42.9889C49.4147 44.6038 48.5146 46.0781 47.3315 47.3089C45.0853 49.6211 41.9145 50.8598 38.1612 50.8915H23.4897C23.3957 50.8915 23.3018 50.8931 23.2091 50.8931C21.5062 50.9203 19.8093 50.685 18.178 50.1955C16.4462 49.6917 14.8777 48.7405 13.6306 47.4375C12.3835 46.1346 11.5018 44.526 11.0744 42.7738C10.64 41.0405 10.4873 39.2486 10.6219 37.4668C10.6257 37.1397 10.6379 36.8202 10.6583 36.5083L10.8973 22.1715C10.8673 20.8591 11.0092 19.5485 11.3194 18.273C11.7418 16.4953 12.6234 14.8596 13.8761 13.5294C14.9643 12.404 16.2998 11.5477 17.7766 11.0284C19.3639 10.483 21.0349 10.2215 22.7129 10.2557L32.2869 10.1083L32.3772 10.1107C33.9055 10.1416 35.414 10.4637 36.8216 11.0597C38.1585 11.6304 39.3614 12.4739 40.3535 13.5363C42.1865 15.5295 43.2022 18.1396 43.1986 20.8476C43.3703 22.5301 43.272 24.2292 42.9074 25.8807C43.1642 25.8896 43.41 25.9022 43.6467 25.9187C45.1959 26.0269 47.1735 26.3445 48.7286 27.8518C49.356 28.4638 49.8448 29.2032 50.1623 30.0201C50.409 30.6624 50.5749 31.3328 50.656 32.016C50.7769 33.2096 50.8256 34.4095 50.8016 35.6089C50.8042 36.2244 50.8073 36.9219 50.8219 37.6766L50.8232 37.7391L50.8228 37.8013Z" fill="black"/>
<path d="M23.3716 25.4753L31.5578 25.6052C31.5767 25.6052 31.5956 25.6052 31.6145 25.6052C32.5346 25.6025 33.4164 25.237 34.0686 24.588C34.7207 23.939 35.0905 23.0589 35.0977 22.1389C35.1048 21.2188 34.7488 20.3331 34.1068 19.6741C33.4648 19.015 32.5887 18.6358 31.6688 18.6189L23.4826 18.4887C23.0239 18.4814 22.5682 18.5646 22.1416 18.7334C21.7151 18.9022 21.3259 19.1534 20.9964 19.4726C20.3309 20.1172 19.9488 20.9999 19.934 21.9263C19.9193 22.8527 20.2732 23.747 20.9179 24.4125C21.5625 25.078 22.4452 25.4601 23.3716 25.4748V25.4753Z" fill="black"/>
</svg>
