<svg width="57" height="57" viewBox="0 0 57 57" fill="none" xmlns="http://www.w3.org/2000/svg">
<path d="M0 0V57H57V0H0ZM17.0253 47.2201H8.79194V22.3845H17.0253V47.2201ZM12.9567 17.5206C11.9577 17.5206 10.9811 17.2243 10.1504 16.6693C9.31974 16.1143 8.67228 15.3254 8.28991 14.4025C7.90754 13.4795 7.80743 12.4639 8.00224 11.484C8.19705 10.5042 8.67803 9.6041 9.38436 8.89759C10.0907 8.19108 10.9907 7.70986 11.9705 7.5148C12.9503 7.31975 13.9659 7.41964 14.889 7.80178C15.812 8.18392 16.601 8.83119 17.1563 9.66173C17.7115 10.4923 18.008 11.4688 18.0082 12.4678C18.0084 13.1313 17.8778 13.7883 17.624 14.4013C17.3703 15.0143 16.9982 15.5713 16.5291 16.0405C16.06 16.5097 15.5031 16.8819 14.8901 17.1359C14.2772 17.3898 13.6202 17.5206 12.9567 17.5206ZM47.9167 47.5051H39.6986V34.0695C39.7491 32.6129 39.3342 31.1781 38.5143 29.9732C38.1892 29.512 37.7495 29.1435 37.2387 28.9041C36.7278 28.6647 36.1633 28.5625 35.6009 28.6077C34.9203 28.5665 34.2411 28.7082 33.6338 29.018C33.0264 29.3278 32.513 29.7945 32.1467 30.3696C31.1499 31.5983 30.9725 33.9289 30.9725 36.9752V47.5051H22.9165V22.425H31.0612V26.3252C31.7346 24.9294 32.8312 23.7818 34.1949 23.0458C35.4419 22.2942 36.8575 21.8675 38.3121 21.8048C39.7667 21.7422 41.2138 22.0457 42.5207 22.6873C44.5439 23.889 46.1834 25.6415 47.2479 27.74C47.8113 29.486 48.0374 31.3232 47.9142 33.1537L47.9167 47.5051Z" fill="black"/>
</svg>
