<svg width="56" height="56" viewBox="0 0 56 56" fill="none" xmlns="http://www.w3.org/2000/svg">
<path d="M43.9958 5.59989C40.1261 1.88427 35.1312 0 29.1493 0C25.5093 0 22.1367 0.625562 19.1253 1.85953C16.1008 3.09855 13.6099 4.75087 11.7217 6.77081C9.91876 8.67743 8.46184 10.8836 7.41626 13.2903C6.42466 15.5604 5.90685 18.0089 5.89453 20.486C5.89453 23.4619 6.47258 26.1152 7.61243 28.3721C8.73068 30.6695 10.664 32.4685 13.0358 33.4187C13.3536 33.5569 13.696 33.6292 14.0425 33.6314C14.3889 33.6335 14.7322 33.5654 15.0516 33.4312C15.3878 33.2813 15.6826 33.0522 15.9108 32.7635C16.139 32.4747 16.2937 32.1349 16.3618 31.7732C16.424 31.5904 16.5193 31.26 16.6955 30.478C16.8788 29.6623 16.9465 29.4715 16.9529 29.4545L16.9932 29.3369C17.1438 28.8247 17.1593 28.2821 17.0383 27.7621C16.9172 27.242 16.6637 26.7621 16.3024 26.369C15.1719 24.993 14.5989 23.2648 14.5989 21.2319C14.5759 19.4952 14.8996 17.7715 15.551 16.1614C16.2023 14.5514 17.1683 13.0875 18.3924 11.8553C20.8961 9.27017 24.2286 7.95943 28.297 7.95943C31.9192 7.95943 34.7502 8.93002 36.7111 10.8445C38.662 12.7497 39.6525 15.2592 39.6525 18.3033C39.6525 22.5432 38.7912 26.192 37.0926 29.1485C35.4941 31.9304 33.6637 33.2265 31.3319 33.2265C30.0974 33.2265 29.1886 32.8251 28.4718 31.9635C27.7657 31.1144 27.5598 30.1679 27.8242 28.9829C28.0258 28.0757 28.3635 26.8874 28.8564 25.3502C29.3559 23.7923 29.7665 22.3864 30.0772 21.1712C30.3781 20.0796 30.5445 18.9553 30.5725 17.8234C30.5725 16.181 30.0971 14.7824 29.1595 13.6672C28.1593 12.4773 26.7763 11.8739 25.0489 11.8739C22.9782 11.8739 21.2061 12.8158 19.7815 14.6739C18.4448 16.4162 17.7681 18.6046 17.7681 21.1784L17.8223 22.0255C17.8474 22.7636 17.9473 23.4972 18.1204 24.2152C18.2591 24.8639 18.4562 25.4987 18.7092 26.1119C16.6956 34.6129 15.2753 40.6151 14.8737 42.3377C14.6764 43.2354 14.5341 44.1444 14.4476 45.0594C14.3542 46.0094 14.2983 46.8958 14.2815 47.6939C14.2644 48.5131 14.2832 49.3502 14.3374 50.1817C14.3916 51.0087 14.4466 51.6978 14.5016 52.2295C14.5558 52.7517 14.609 53.2411 14.6631 53.7098C14.7075 54.0971 14.7266 54.274 14.7339 54.3433V54.443L14.7637 54.5834C14.8302 54.9234 14.9966 55.2359 15.2416 55.4809C15.4866 55.7258 15.7991 55.8922 16.1391 55.9586C16.2671 55.986 16.3976 55.9998 16.5285 56C16.8047 56.0003 17.077 55.9353 17.3233 55.8103C17.5696 55.6853 17.7828 55.5039 17.9457 55.2809L18.2408 54.8874C18.4535 54.6356 18.6888 54.3363 18.9596 53.9734C19.2006 53.6504 19.4912 53.2367 19.8744 52.6711C20.251 52.1153 20.6069 51.5533 20.9326 51.0004C21.3248 50.334 21.6664 49.7227 21.9763 49.1318C22.3465 48.4273 22.6787 47.7152 22.9639 47.0154C23.2641 46.2894 23.5152 45.5441 23.7156 44.7845L25.2046 38.9033C25.7121 39.3051 26.2557 39.6589 26.8285 39.9603C28.4105 40.8059 30.1778 41.2454 31.9716 41.2392C37.2543 41.2392 41.6224 39.0634 44.9547 34.7723C48.2021 30.5906 49.8484 25.2468 49.8484 18.8897C49.8481 13.801 47.8791 9.32942 43.9958 5.59989Z" fill="black"/>
</svg>
