<svg width="57" height="57" viewBox="0 0 57 57" fill="none" xmlns="http://www.w3.org/2000/svg">
<path d="M29.5715 25.0205C25.6286 24.0869 24.695 23.6715 23.8654 22.7379C23.1389 21.9074 23.0348 21.2859 23.6582 20.3522C24.2806 19.3144 25.8369 18.692 27.9113 18.5888C30.9205 18.3817 32.2686 19.1071 34.0318 21.9083C35.3808 23.9837 36.7288 24.5022 38.4941 23.6715C40.7758 22.5315 40.5685 18.7959 38.0778 16.6174C35.692 14.6469 33.0998 13.8164 28.741 13.8164C24.1767 13.8164 21.0633 14.7501 18.9889 16.8245C17.3287 18.4847 17.0184 19.4184 17.0184 22.0115C17.0184 24.7095 17.3296 25.5381 19.0928 27.0953C20.9603 28.8585 22.5165 29.4821 28.1178 30.8299C32.0607 31.7636 33.0985 32.2821 34.0312 33.3189C34.4475 33.8382 34.6546 34.2526 34.6546 35.1863C34.6546 36.224 34.5507 36.4311 33.7209 37.2618C32.4761 38.5058 30.6087 39.0241 28.2229 38.922C25.4219 38.713 24.1771 37.8843 22.7249 34.9792C21.6871 33.0087 20.8576 32.2821 19.5086 32.2821C16.4993 32.2821 15.4625 34.7711 17.0196 37.9872C18.3686 40.7894 21.0654 42.6567 24.489 43.3823C26.5635 43.7976 31.1288 43.7976 33.1002 43.3823H32.9963C36.4206 42.6567 39.428 40.5811 40.5697 38.0923C42.0218 35.0831 41.6065 31.5563 39.636 29.377C37.9747 27.5093 35.4849 26.4727 29.5715 25.0205Z" fill="black"/>
<path d="M0 0V57H57V0H0ZM46.7924 48.8811C45.5466 49.9189 43.0578 51.0596 41.5015 51.475C39.9445 51.7862 37.4557 51.7862 35.8986 51.3709H35.7973C35.1739 51.1638 34.2393 50.9565 33.7218 50.7484C33.0993 50.4382 32.3728 50.4382 30.0912 50.5413C28.4632 50.642 26.8291 50.5719 25.2157 50.3323C16.9155 48.8813 10.2756 42.8638 7.88994 34.5648C7.4746 33.0087 7.37162 32.179 7.37162 28.4443C7.37162 24.3973 7.2675 24.0871 6.74899 22.4268C3.74091 14.231 9.861 5.62039 18.5757 5.62039C20.3391 5.62039 22.5177 6.13966 23.7627 6.76039C24.5934 7.17573 25.1117 7.2789 28.3271 7.2789C31.2322 7.2789 32.3731 7.38283 33.8251 7.79817C40.3611 9.45839 45.6519 13.7115 48.4529 19.6249C50.2162 23.2556 50.8396 26.9912 50.4233 31.2434C50.2162 33.527 50.2162 33.7341 50.7346 35.0814C51.5435 37.5111 51.5999 40.1283 50.8965 42.5906C50.1932 45.0529 48.7627 47.2454 46.7924 48.8811Z" fill="black"/>
</svg>
