<svg width="57" height="57" viewBox="0 0 57 57" fill="none" xmlns="http://www.w3.org/2000/svg">
<path d="M52.2192 0H4.78059C3.51278 5.03769e-05 2.2969 0.503682 1.40039 1.40012C0.50388 2.29657 0.000151191 3.5124 3.39843e-08 4.78021V52.2188C-7.48252e-05 52.8467 0.123524 53.4684 0.363737 54.0485C0.603951 54.6285 0.956075 55.1556 1.4 55.5996C1.84393 56.0436 2.37096 56.3958 2.95101 56.636C3.53105 56.8763 4.15275 57 4.78059 57H52.2192C52.847 57 53.4687 56.8764 54.0487 56.6362C54.6288 56.3959 55.1558 56.0438 55.5997 55.5999C56.0437 55.1559 56.3958 54.6289 56.6361 54.0489C56.8763 53.4689 57 52.8472 57 52.2194V4.78021C56.9998 3.51237 56.4961 2.2965 55.5995 1.40006C54.703 0.50361 53.4871 -9.0113e-09 52.2192 0ZM52.0338 42.1133C51.7887 42.3195 51.6378 42.3153 51.0304 42.5146C49.8442 42.9039 49.9637 43.0698 49.0785 43.3172C48.7607 43.4061 48.6457 43.4122 47.3092 43.7367C47.0449 43.7993 46.7923 43.904 46.5612 44.0467C46.3246 44.1719 46.1285 44.3617 45.9958 44.5941C45.8932 44.798 45.9215 44.9158 45.8863 45.2143C45.8527 45.4993 45.7794 46.1204 45.3756 46.5823C45.1858 46.8021 44.9399 46.9663 44.6641 47.0573C44.3158 47.1523 43.947 47.1396 43.6061 47.0208C43.1691 46.8952 42.4874 46.8519 41.1253 46.7655C40.119 46.7081 39.1107 46.838 38.1518 47.1485C37.285 47.434 36.4622 47.8392 35.7075 48.3523C35.073 48.7648 35.044 48.8739 34.2845 49.3557C33.6684 49.7419 33.0287 50.0892 32.3692 50.3954C31.4762 50.8134 30.9994 51.0367 30.3263 51.1982C29.5467 51.3785 28.7429 51.4299 27.9467 51.3502C26.5522 51.2272 25.2001 50.807 23.9816 50.1176C22.9224 49.5476 23.047 49.3956 20.9808 48.135C19.8763 47.461 19.4547 47.2686 18.9981 47.117C18.1488 46.8512 17.2622 46.7245 16.3725 46.7419C15.083 46.717 14.4379 46.7419 13.6397 47.0098C13.3181 47.1175 12.8242 47.317 12.2465 47.1705C11.9584 47.1079 11.6965 46.9583 11.4963 46.7419C11.3035 46.5204 11.2389 46.2401 11.1179 45.6883C10.9942 45.1254 11.0388 45.0233 10.8988 44.7216C10.7989 44.4812 10.6425 44.2685 10.4428 44.1015C10.2705 43.9647 10.1388 43.9305 9.29366 43.7365C8.62163 43.5816 8.51466 43.559 8.29027 43.4994C8.05866 43.438 7.7729 43.3622 7.43299 43.244C6.82214 43.0318 6.7849 42.9432 6.02832 42.6421C5.32247 42.3611 5.29055 42.4126 5.11632 42.259C4.94874 42.1114 4.7918 41.784 4.47773 41.128C4.38343 40.9883 4.33849 40.8211 4.35005 40.653C4.38482 40.4607 4.53492 40.3171 4.8792 40.1058C5.23029 39.8906 5.60327 39.7133 5.99184 39.577C6.631 39.3528 6.95058 39.2405 7.21411 39.1575C8.22179 38.8192 9.1653 38.3135 10.005 37.6618C10.5289 37.2674 11.0172 36.8279 11.4644 36.3483C13.2282 34.5433 13.4024 33.5681 14.6754 31.6603C14.8695 31.3835 14.9946 31.0643 15.0402 30.7293C15.0793 30.4658 15.0543 30.1967 14.9672 29.9449C14.7904 29.4836 14.3707 29.244 13.9093 29.014C12.8602 28.4922 12.3133 28.3797 11.2096 27.9196C10.2429 27.5164 9.90546 27.2868 9.62255 26.9526C9.3242 26.6404 9.14366 26.2342 9.11183 25.8035C9.1047 25.4162 9.22663 25.0376 9.45839 24.7272C9.70771 24.3964 10.051 24.1485 10.4433 24.0158C10.7694 23.8912 11.116 23.8293 11.465 23.8334C11.9164 23.8365 12.2489 23.9457 12.7965 24.1253C13.2783 24.2833 13.3642 24.3588 13.8181 24.4718C14.1184 24.5707 14.4393 24.5896 14.7491 24.5265C14.9498 24.4961 15.1319 24.392 15.26 24.2347C15.3621 24.0513 15.3883 23.8352 15.333 23.6328C15.1079 22.5178 15.3672 21.3528 15.26 20.2215C15.1564 19.0184 15.1809 17.8077 15.333 16.6098C15.4696 15.3349 15.644 13.7081 16.5551 11.9763C17.1869 10.8015 18.0414 9.76095 19.0711 8.9129C22.5804 5.8729 26.8877 5.66751 28.0094 5.62932C29.362 5.58353 32.7678 5.51342 36.0905 7.63591C37.5949 8.59302 38.8761 9.86209 39.8476 11.3572C40.5096 12.424 41.0019 13.5871 41.3069 14.805C41.7698 16.534 41.7667 17.8982 41.7629 19.5113C41.7593 20.83 41.6618 22.1467 41.4711 23.4515C41.4492 23.6491 41.4742 23.8491 41.5441 24.0352C41.605 24.2465 41.7413 24.4282 41.9271 24.5459C42.0858 24.627 42.2611 24.6196 42.6932 24.4912C43.3306 24.3012 43.4365 24.1735 43.8425 24.0542C44.247 23.9494 44.6662 23.9124 45.0828 23.9448C45.5205 23.9313 45.9576 23.9867 46.378 24.1089C46.7829 24.236 47.2275 24.3749 47.5456 24.8022C47.7375 25.0477 47.8462 25.348 47.8557 25.6595C47.8349 26.0697 47.6662 26.4586 47.3807 26.7539C47.2213 26.9421 47.0372 27.1079 46.8333 27.2466C46.4723 27.5065 46.1727 27.6473 45.3923 27.9762C44.5711 28.3222 44.1607 28.4952 43.86 28.6146C43.7771 28.6474 43.4824 28.7825 42.8931 29.0516C42.6717 29.1352 42.4676 29.2589 42.2911 29.4166C42.1365 29.5746 42.0128 29.7602 41.9263 29.9638C41.6527 30.6367 42.0937 31.5408 42.2182 31.7878C43.327 33.9965 44.316 35.1623 44.316 35.1623C45.2225 36.2313 45.9448 37.0829 47.1981 37.9174C48.1439 38.5466 49.8756 39.4879 50.7918 39.5772C51.348 39.6159 51.8749 39.8408 52.2876 40.2158C52.3901 40.3019 52.4819 40.3998 52.5612 40.5076C52.8132 40.9015 52.5373 41.6887 52.0338 42.1127V42.1133Z" fill="black"/>
</svg>
