<svg width="57" height="57" viewBox="0 0 57 57" fill="none" xmlns="http://www.w3.org/2000/svg">
<path d="M0 0V57H57V0H0ZM54.1881 16.6927C54.1461 16.8031 54.0797 16.9027 53.994 16.9839C53.5463 17.4161 53.1542 17.9091 52.6845 18.318C51.7696 19.1138 51.9081 19.1281 51.2287 19.6768C50.8425 19.9856 50.4371 20.2695 50.0149 20.5269C50.0918 21.2439 50.1324 21.9642 50.1366 22.6853C50.1375 24.35 49.9583 26.0101 49.6021 27.6363C49.2812 29.2139 48.8351 30.7634 48.268 32.2701C47.7155 33.7399 47.0559 35.1671 46.2947 36.5404C45.3865 38.1981 44.3593 39.7878 43.2214 41.2971C42.586 42.1408 42.1564 42.6377 42.0567 42.7529C41.2111 43.7178 40.2918 44.6156 39.3069 45.438C37.9555 46.5605 36.5041 47.5567 34.9707 48.4142C33.5633 49.2717 32.0797 49.9973 30.5387 50.5817C29.4618 50.9788 28.3594 51.303 27.239 51.5522C25.6962 51.9105 24.1279 52.1485 22.5482 52.2639C21.1588 52.3638 19.7645 52.3745 18.3737 52.2962C16.6987 52.2109 15.033 51.9946 13.3917 51.6492C11.9882 51.3224 10.6054 50.9119 9.25091 50.42C9.19138 50.3993 8.3878 50.1055 7.40693 49.6435C6.28632 49.1169 6.84404 49.267 6.17762 48.9642C5.88518 48.8348 5.65354 48.7455 5.56296 48.5113C5.5245 48.4017 5.51622 48.2839 5.53899 48.1701C5.56176 48.0562 5.61474 47.9506 5.69237 47.8643C5.77625 47.7918 5.87402 47.7373 5.9797 47.7039C6.08538 47.6706 6.19677 47.6591 6.30703 47.6702C6.88759 47.6136 7.47169 47.6027 8.05394 47.6378C9.36219 47.5799 10.6519 47.3067 11.8713 46.8291C13.0325 46.5466 14.1689 46.1705 15.2694 45.7045C16.3313 45.1667 17.3578 44.5616 18.3426 43.893C18.8357 43.5746 19.2368 43.3028 19.5073 43.1165C18.7898 43.1397 18.0723 43.0746 17.3708 42.9225C15.7767 42.5003 14.2742 41.7874 12.9389 40.8197C12.0033 40.0162 11.2055 39.065 10.5773 38.0039C10.3508 37.6597 10.1761 37.366 10.0597 37.1628C10.0609 36.9233 10.1281 36.6886 10.2538 36.4847C10.4016 36.254 10.6159 36.0735 10.8684 35.9671C11.181 35.8638 11.5102 35.8199 11.8389 35.8377C12.2604 35.8413 12.6817 35.8197 13.1006 35.773C13.48 35.7022 13.8424 35.5595 14.1682 35.3524C13.5177 35.3074 12.8759 35.1769 12.2595 34.9642C11.6459 34.7403 11.0599 34.4473 10.5126 34.0908C9.51666 33.5037 8.62109 32.761 7.85985 31.8909C7.17345 31.0099 6.58751 30.0551 6.11292 29.0441C5.8769 28.6097 5.71301 28.14 5.62766 27.6531C5.49602 27.2141 5.53056 26.7419 5.72471 26.3267C5.87568 26.0709 6.10152 25.8677 6.37172 25.7444C6.72109 25.6056 7.10337 25.5719 7.47164 25.6473C8.03286 25.7537 8.5846 25.9052 9.1215 26.1003C9.54547 26.207 9.97887 26.272 10.4155 26.2943C9.98393 25.9994 9.57319 25.6752 9.1862 25.3238C8.71353 24.9004 8.2804 24.4348 7.89219 23.9328C7.25918 23.0718 6.77781 22.109 6.46878 21.086C6.03452 19.9041 5.80477 18.6569 5.78942 17.398C5.78165 16.0832 6.03141 16.3201 6.14528 14.6159C6.1367 14.4321 6.16549 14.2485 6.22991 14.0762C6.29432 13.9039 6.39303 13.7464 6.52004 13.6134C6.64706 13.4803 6.79974 13.3744 6.96887 13.302C7.13799 13.2297 7.32003 13.1924 7.50398 13.1924C7.8704 13.1837 8.23101 13.2852 8.5392 13.4836C9.22373 13.8718 9.39583 14.3079 9.93025 14.907C10.52 15.46 11.1588 15.9581 11.8389 16.3951C12.8819 17.1948 13.0644 17.4006 13.6505 17.8509C14.7957 18.708 16.0326 19.4349 17.3385 20.0184C18.7185 20.6751 20.1459 21.2271 21.6087 21.6695C22.8873 22.1071 24.1954 22.4531 25.5231 22.7047C26.7305 22.9234 27.9523 23.0531 29.1787 23.0929C29.1153 22.8018 29.0403 22.4033 28.9846 21.9284C28.8744 21.0806 28.8635 20.2229 28.9523 19.3726C29.0799 18.284 29.386 17.2239 29.8581 16.2347C30.8851 13.9539 32.6842 12.109 34.9384 11.025C36.0351 10.4824 37.2169 10.1322 38.4322 9.98976C39.3597 9.89638 40.2956 9.92904 41.2143 10.0868C42.7443 10.364 44.1991 10.9591 45.4846 11.8337C46.1266 12.2681 46.7228 12.7668 47.2639 13.3219C48.0856 13.1342 48.7856 12.9543 49.3343 12.8042C50.1048 12.6289 50.8534 12.3686 51.5664 12.0278C51.8684 11.8742 52.1602 11.7013 52.4399 11.5102C52.6042 11.4737 52.7762 11.4966 52.9252 11.5749C53.0087 11.6227 53.0818 11.6867 53.1403 11.7631C53.1987 11.8395 53.2413 11.9269 53.2655 12.02C53.3496 12.3384 53.1645 12.6283 52.8773 13.063C52.3273 13.8951 52.053 14.3117 51.9792 14.3984C51.1648 15.2928 50.2151 16.0539 49.1648 16.654C49.8737 16.6013 50.5786 16.504 51.2753 16.3628C51.8454 16.2791 52.4061 16.141 52.9497 15.95C53.109 15.8699 53.282 15.8207 53.4596 15.8051C53.5637 15.7827 53.6713 15.7819 53.7757 15.8028C53.8801 15.8237 53.9791 15.8659 54.0665 15.9267C54.1584 16.0304 54.2191 16.1579 54.2415 16.2946C54.264 16.4313 54.2472 16.5716 54.1933 16.6992L54.1881 16.6927Z" fill="black"/>
</svg>
