<svg width="57" height="57" viewBox="0 0 57 57" fill="none" xmlns="http://www.w3.org/2000/svg">
<path d="M0 0V57H57V0H0ZM51.1113 39.9336C50.8446 40.9377 50.3187 41.854 49.5864 42.591C48.8541 43.3279 47.9411 43.8595 46.9387 44.1326C43.2584 45.125 28.5 45.125 28.5 45.125C28.5 45.125 13.7417 45.125 10.0615 44.1324C9.05906 43.8594 8.146 43.3278 7.4137 42.5909C6.6814 41.8539 6.15557 40.9375 5.88886 39.9334C4.902 36.229 4.902 28.5 4.902 28.5C4.902 28.5 4.902 20.771 5.88829 17.0666C6.15498 16.0625 6.68081 15.1461 7.41311 14.4091C8.14541 13.6722 9.05848 13.1406 10.0609 12.8676C13.7416 11.875 28.5 11.875 28.5 11.875C28.5 11.875 43.2586 11.875 46.9389 12.8677C47.9413 13.1408 48.8544 13.6724 49.5867 14.4093C50.319 15.1463 50.8448 16.0627 51.1115 17.0667C52.098 20.7712 52.098 28.5 52.098 28.5C52.098 28.5 52.098 36.2288 51.1113 39.9336Z" fill="black"/>
<path d="M23.6719 35.517L36.0072 28.5001L23.6719 21.4824V35.517Z" fill="black"/>
</svg>
