<svg width="56" height="56" viewBox="0 0 56 56" fill="none" xmlns="http://www.w3.org/2000/svg">
<path d="M55.6402 13.843C55.6402 8.08839 52.0194 3.45909 47.5454 3.45909C41.4853 3.12788 35.3048 3 28.9887 3H27.0197C20.7189 3 14.5275 3.12788 8.46736 3.46037C4.0043 3.46037 0.383526 8.11525 0.383526 13.8699C0.110054 18.4212 -0.00589813 22.9738 0.000665202 27.5263C-0.0102737 32.0789 0.1137 36.6357 0.372587 41.1968C0.372587 46.9515 3.99336 51.6191 8.45642 51.6191C14.8228 51.9644 21.3534 52.1179 27.9933 52.1051C34.6441 52.1307 41.1564 51.9687 47.5301 51.6191C52.0041 51.6191 55.6249 46.9515 55.6249 41.1968C55.8874 36.6315 56.0077 32.0789 55.9968 27.5135C56.0216 22.961 55.9027 18.4041 55.6402 13.843ZM22.6441 40.0715V14.9428L38.5055 27.5007L22.6441 40.0715Z" fill="black"/>
</svg>
