<svg width="24" height="23" viewBox="0 0 24 23" fill="none" xmlns="http://www.w3.org/2000/svg">
<g clip-path="url(#clip0_2597_255)">
<path d="M23.9798 15.139C23.9113 14.8662 23.7724 14.6164 23.5773 14.4145C23.3822 14.2127 23.1376 14.0659 22.8681 13.989C22.6156 13.9185 22.3505 13.9062 22.0927 13.9531C21.8348 13.9999 21.5908 14.1047 21.379 14.2596L18.1583 17.0196C18.1086 16.731 17.9774 16.4629 17.7804 16.247C17.5833 16.0312 17.3286 15.8767 17.0466 15.8019C16.0419 15.6435 15.0232 15.5936 14.0079 15.6531C13.3025 15.681 12.596 15.6675 11.8922 15.6125L11.8248 15.5043C11.7295 15.3433 11.6165 15.1935 11.4879 15.0578C10.8373 14.3984 10.0269 13.9204 9.13644 13.6711C7.88439 13.4077 6.5794 13.6508 5.50477 14.3475C5.39897 14.1404 5.23746 13.9672 5.03856 13.8477C4.83966 13.7281 4.61135 13.6669 4.37956 13.6711H0V22.9996H4.35261C4.58067 22.9984 4.8041 22.9348 4.99882 22.8156C5.19353 22.6964 5.35216 22.5261 5.45761 22.3231C5.62281 22.4504 5.80128 22.5592 5.98989 22.6478C6.32172 22.7942 6.67867 22.8746 7.04099 22.8846C7.38462 22.8846 8.64458 22.8846 10.5851 22.8846H16.4469C16.5168 22.8824 16.5855 22.8663 16.6491 22.8372C16.907 22.7151 17.1548 22.5726 17.3902 22.4111C17.8577 22.0914 18.2775 21.7065 18.6367 21.2678C19.1353 20.6658 20.813 19.0152 23.6227 16.3634C23.6481 16.3461 23.6689 16.3229 23.6833 16.2958C23.8079 16.133 23.8983 15.9466 23.9493 15.7478C24.0002 15.549 24.0106 15.3419 23.9798 15.139ZM22.9422 15.6869C20.0786 18.3928 18.4346 20.0096 17.909 20.6522C17.6047 21.0344 17.246 21.3694 16.8445 21.6466C16.677 21.7611 16.5014 21.8628 16.3189 21.9511C11.2791 21.9511 7.65413 21.9511 7.06794 21.9511C6.83582 21.9461 6.60693 21.8955 6.39416 21.8022C6.2778 21.7482 6.16719 21.6825 6.06401 21.6061L5.99663 15.1999C6.84709 14.6396 7.88212 14.4357 8.8804 14.6316C9.60161 14.8413 10.2563 15.2352 10.7805 15.7749C10.8549 15.8539 10.9184 15.9426 10.9691 16.0387C11.0286 16.1781 11.1211 16.3009 11.2385 16.3964C11.3559 16.4918 11.4947 16.5571 11.6429 16.5866C12.4291 16.6591 13.2192 16.6771 14.0079 16.6408C14.951 16.5859 15.8973 16.6312 16.831 16.7761C17.0264 16.8166 17.215 17.1481 17.215 17.4525C17.215 17.7569 16.7501 18.1628 16.5817 18.2508C15.3357 18.4817 14.0652 18.5499 12.8018 18.4537C12.3436 18.4537 11.872 18.4199 11.4138 18.4199C11.318 18.4196 11.2242 18.4479 11.1443 18.5011C11.0521 18.5588 10.9779 18.6415 10.9302 18.7396C10.8826 18.8377 10.8634 18.9472 10.8748 19.0558C10.9015 19.1769 10.961 19.2882 11.0465 19.3777C11.1321 19.4672 11.2405 19.5313 11.3599 19.5631C11.4091 19.5696 11.4589 19.5696 11.5081 19.5631H14.877C15.4607 19.5388 16.0417 19.471 16.6154 19.3602C16.8436 19.3014 17.054 19.1876 17.2285 19.0287L17.2959 18.9746L21.918 15.0037C22.0089 14.9422 22.1117 14.9007 22.2198 14.8821C22.3278 14.8634 22.4385 14.868 22.5446 14.8955C22.5446 14.8955 22.9354 15.0105 22.9893 15.2946C23.0228 15.4267 23.006 15.5666 22.9422 15.6869Z" fill="white"/>
<path d="M15.9808 0L17.9684 4.03176L22.3952 4.68118L19.188 7.82L19.9493 12.2509L15.9808 10.1606L12.019 12.2509L12.7736 7.82L9.56641 4.68118L13.9999 4.03176L15.9808 0Z" fill="url(#paint0_radial_2597_255)"/>
</g>
<defs>
<radialGradient id="paint0_radial_2597_255" cx="0" cy="0" r="1" gradientUnits="userSpaceOnUse" gradientTransform="translate(15.9808 6.12882) scale(7.33745 7.36677)">
<stop offset="0.04" stop-color="white"/>
<stop offset="0.1" stop-color="white"/>
<stop offset="0.4" stop-color="white"/>
<stop offset="0.93" stop-color="white"/>
<stop offset="1" stop-color="white"/>
</radialGradient>
<clipPath id="clip0_2597_255">
<rect width="24" height="23" fill="white"/>
</clipPath>
</defs>
</svg>
