<svg width="25" height="25" viewBox="0 0 25 25" fill="none" xmlns="http://www.w3.org/2000/svg">
<path d="M20.832 3.125H4.16536C3.01641 3.125 2.08203 4.05938 2.08203 5.20833V15.625C2.08203 16.774 3.01641 17.7083 4.16536 17.7083H11.457V20.8333H8.33203V22.9167H16.6654V20.8333H13.5404V17.7083H20.832C21.981 17.7083 22.9154 16.774 22.9154 15.625V5.20833C22.9154 4.05938 21.981 3.125 20.832 3.125ZM4.16536 15.625V5.20833H20.832L20.8331 15.625H4.16536Z" fill="white"/>
<path d="M10.418 13.5417L15.6263 10.4167L10.418 7.29166V13.5417Z" fill="white"/>
</svg>
