<svg width="57" height="57" viewBox="0 0 57 57" fill="none" xmlns="http://www.w3.org/2000/svg">
<path d="M51.4471 0H5.55294C4.08021 0 2.6678 0.58504 1.62642 1.62642C0.58504 2.6678 0 4.08021 0 5.55294L0 51.4471C0 52.9198 0.58504 54.3322 1.62642 55.3736C2.6678 56.415 4.08021 57 5.55294 57H51.4471C52.9198 57 54.3322 56.415 55.3736 55.3736C56.415 54.3322 57 52.9198 57 51.4471V5.55294C57 4.08021 56.415 2.6678 55.3736 1.62642C54.3322 0.58504 52.9198 0 51.4471 0ZM28.5 48.3474C26.277 48.3495 24.064 48.0491 21.922 47.4544L14.113 51.7674V43.6194C8.90112 39.7028 5.567 33.7045 5.567 26.98C5.567 15.181 15.834 5.61393 28.5 5.61393C41.166 5.61393 51.433 15.181 51.433 26.98C51.433 38.779 41.166 48.3474 28.5 48.3474Z" fill="black"/>
<path d="M26.078 20.998L13.543 34.3877L24.9384 28.1202L30.7786 34.3877L43.3139 20.998L32.0608 27.2656L26.078 20.998Z" fill="black"/>
</svg>
