<svg width="57" height="57" viewBox="0 0 57 57" fill="none" xmlns="http://www.w3.org/2000/svg">
<path d="M0 0V57H57V0H0ZM52.0585 11.419C52.0417 12.0305 51.9092 12.6333 51.6678 13.1955C49.3229 24.2923 46.9779 35.389 44.6331 46.4856C44.606 46.8266 44.4963 47.1559 44.3133 47.4449C44.1378 47.7008 43.9117 47.9179 43.649 48.0829C43.3862 48.2479 43.0924 48.3573 42.7857 48.4042C41.5616 48.6081 40.6691 47.712 40.5829 47.6226L30.031 39.8774L25.27 44.4963C24.4724 45.1913 23.5234 45.6901 22.4987 45.9528C22.7711 42.2224 23.0435 38.492 23.3157 34.7618L43.4247 16.4648L43.78 16.1451C43.834 16.0499 43.8562 15.94 43.8434 15.8314C43.8306 15.7228 43.7835 15.6211 43.7089 15.541C43.6125 15.4511 43.4856 15.401 43.3537 15.401C43.2219 15.401 43.0949 15.4511 42.9985 15.541L17.5247 31.653C14.2487 30.7461 10.9178 29.7069 7.53217 28.5355C7.07617 28.3771 6.62321 28.2172 6.17329 28.0558C6.04029 28.0748 5.54401 28.1287 5.21398 27.816C4.71998 27.3475 5.02626 26.4581 5.05419 26.3771C5.38669 25.4123 6.7298 24.8148 8.41149 24.7783L47.2623 9.5L48.5412 9.00258C48.8522 8.76803 49.2202 8.62084 49.6071 8.57622C50.0043 8.5436 50.4032 8.61489 50.7645 8.78309C51.1258 8.95128 51.4371 9.21059 51.6678 9.53553C52.0915 10.1344 52.075 10.7745 52.0585 11.419Z" fill="black"/>
</svg>
