<svg width="60" height="60" viewBox="0 0 60 60" fill="none" xmlns="http://www.w3.org/2000/svg">
<path d="M30 0C24.0666 0 18.2664 1.75948 13.3329 5.05592C8.39945 8.35237 4.55425 13.0377 2.28362 18.5195C0.0129917 24.0013 -0.581099 30.0333 0.576457 35.8527C1.73401 41.6721 4.59124 47.0176 8.78682 51.2132C12.9824 55.4088 18.3279 58.266 24.1473 59.4235C29.9667 60.5811 35.9987 59.987 41.4805 57.7164C46.9623 55.4458 51.6476 51.6005 54.9441 46.6671C58.2405 41.7336 60 35.9334 60 30C60 26.0603 59.224 22.1593 57.7164 18.5195C56.2087 14.8797 53.9989 11.5725 51.2132 8.78677C48.4274 6.00101 45.1203 3.79122 41.4805 2.28358C37.8407 0.775935 33.9397 0 30 0V0ZM48.2564 16.8593C48.2401 17.4213 48.1169 17.9751 47.8936 18.4911C45.7387 28.6903 43.5839 38.8883 41.4291 49.085C41.4042 49.3985 41.3033 49.7012 41.1351 49.9669C40.9738 50.2022 40.7659 50.4019 40.5243 50.5536C40.2828 50.7052 40.0126 50.8057 39.7306 50.8487C39.3608 50.8917 38.9861 50.8492 38.6353 50.7246C38.2844 50.6001 37.9668 50.3967 37.7069 50.1302L28.0089 43.0125L23.6347 47.2572C23.3214 47.5291 22.9823 47.7698 22.6222 47.9758C22.1404 48.2497 21.6241 48.458 21.0871 48.5951L21.8383 38.3129L40.3186 21.4983L40.6452 21.2044C40.695 21.1172 40.7155 21.0163 40.7038 20.9166C40.692 20.8169 40.6486 20.7236 40.5799 20.6504C40.4907 20.5688 40.3741 20.5235 40.2532 20.5235C40.1323 20.5235 40.0158 20.5688 39.9266 20.6504L16.5157 35.4568C13.5061 34.6229 10.4452 33.6681 7.33308 32.5923C6.91454 32.4455 6.49839 32.2984 6.08468 32.1508C5.93049 32.1792 5.77205 32.1742 5.61994 32.1362C5.46783 32.0982 5.32559 32.0281 5.20282 31.9306C4.74798 31.5 5.02986 30.6834 5.05527 30.6084C5.36132 29.7217 6.59639 29.1726 8.14115 29.1387L43.8447 15.0992L45.0206 14.6419C45.3065 14.4265 45.6448 14.2911 46.0004 14.25C46.3654 14.2199 46.7319 14.2854 47.0638 14.4401C47.3958 14.5947 47.6818 14.8331 47.8936 15.1318C48.2088 15.6491 48.3369 16.2589 48.2564 16.8593V16.8593Z" fill="white"/>
</svg>
