<svg width="61" height="61" viewBox="0 0 61 61" fill="none" xmlns="http://www.w3.org/2000/svg">
<path d="M30.5 0C24.4677 0 18.5708 1.78881 13.5551 5.14019C8.53944 8.49157 4.63015 13.255 2.32168 18.8281C0.0132082 24.4013 -0.590784 30.5338 0.586065 36.4502C1.76291 42.3667 4.66776 47.8012 8.93326 52.0667C13.1988 56.3322 18.6333 59.2371 24.5497 60.4139C30.4662 61.5908 36.5987 60.9868 42.1719 58.6783C47.745 56.3698 52.5084 52.4606 55.8598 47.4449C59.2112 42.4292 61 36.5323 61 30.5C61 26.4947 60.2111 22.5286 58.6783 18.8281C57.1456 15.1277 54.8989 11.7654 52.0667 8.93322C49.2346 6.10103 45.8723 3.8544 42.1719 2.32164C38.4714 0.788867 34.5053 0 30.5 0ZM49.0607 17.1403C49.0441 17.7117 48.9189 18.2747 48.6918 18.7993C46.501 29.1685 44.3103 39.5364 42.1195 49.9031C42.0942 50.2218 41.9916 50.5295 41.8207 50.7997C41.6567 51.0389 41.4453 51.2419 41.1997 51.3961C40.9541 51.5503 40.6795 51.6524 40.3928 51.6962C40.0168 51.7398 39.6359 51.6967 39.2792 51.57C38.9225 51.4434 38.5996 51.2367 38.3353 50.9657L28.4757 43.7294L24.0286 48.0448C23.7101 48.3213 23.3653 48.5659 22.9992 48.7754C22.5094 49.0539 21.9845 49.2657 21.4386 49.4051L22.2023 38.9514L40.9905 21.8567L41.3226 21.5578C41.3732 21.4692 41.3941 21.3666 41.3821 21.2652C41.3702 21.1638 41.3261 21.069 41.2562 20.9946C41.1655 20.9116 41.047 20.8656 40.9241 20.8656C40.8012 20.8656 40.6828 20.9116 40.5921 20.9946L16.791 36.0478C13.7312 35.2 10.6193 34.2293 7.4553 33.1355C7.02978 32.9863 6.6067 32.8367 6.18609 32.6866C6.02934 32.7155 5.86825 32.7104 5.71361 32.6718C5.55896 32.6332 5.41435 32.5619 5.28954 32.4628C4.82712 32.025 5.1137 31.1948 5.13952 31.1186C5.45067 30.2171 6.70633 29.6588 8.27683 29.6244L44.5755 15.3508L45.7709 14.886C46.0616 14.6669 46.4055 14.5293 46.7671 14.4875C47.1381 14.4569 47.5107 14.5235 47.8482 14.6807C48.1857 14.838 48.4764 15.0803 48.6918 15.384C49.0123 15.9099 49.1425 16.5299 49.0607 17.1403Z" fill="black"/>
</svg>
