<svg width="60" height="60" viewBox="0 0 60 60" fill="none" xmlns="http://www.w3.org/2000/svg">
<path d="M30 0C13.4317 0 0 13.4309 0 30C0 46.568 13.4317 60 30 60C46.5682 60 60 46.568 60 30C60 13.4309 46.5682 0 30 0ZM50.104 18.2292V19.0461L30.3661 29.9517L9.47896 18.5483V18.227L50.104 18.2292ZM9.47896 42.3958V23.7116L30.3786 35.1151L50.104 24.2171V42.3915L9.47896 42.3958Z" fill="white"/>
</svg>
