<svg width="61" height="61" viewBox="0 0 61 61" fill="none" xmlns="http://www.w3.org/2000/svg">
<path fill-rule="evenodd" clip-rule="evenodd" d="M30.5 61C47.3447 61 61 47.3447 61 30.5C61 13.6553 47.3447 0 30.5 0C13.6553 0 0 13.6553 0 30.5C0 47.3447 13.6553 61 30.5 61ZM26.6511 21.2824C26.3422 21.7472 25.9593 22.1602 25.5171 22.5057L16.7295 12.8653L18.0291 11.7556C18.2628 11.5356 18.5255 11.3472 18.81 11.1954C19.4591 10.8673 20.1973 10.7496 20.9187 10.8593C21.4755 10.9759 21.859 11.2698 22.8493 12.3719C23.7009 13.2896 24.4872 14.264 25.2024 15.2881C25.9744 16.2535 26.5484 17.357 26.8924 18.5373C26.9705 18.868 27.0108 19.2063 27.0127 19.5457C27.0297 20.1442 26.9059 20.7385 26.6511 21.2824ZM36.5983 37.7582C36.7536 37.6183 36.9194 37.4901 37.0942 37.3745L46.3465 46.8422C46.3213 46.8592 46.2976 46.8763 46.2739 46.8934L46.2736 46.8937C46.2482 46.9119 46.2228 46.9303 46.195 46.9489C45.0961 47.6734 43.897 48.2394 42.6345 48.6295C41.2845 49.0265 39.88 49.2155 38.4711 49.1897C36.7275 49.169 34.9976 48.8843 33.3424 48.3456C31.0309 47.5657 28.8689 46.4106 26.9461 44.9282C23.5235 42.5813 20.4733 39.7495 17.8945 36.525L17.8873 36.5158C15.9366 34.0572 14.0599 31.6918 12.8259 28.0066C11.478 23.9815 11.5928 20.4605 12.4034 18.4268C12.7886 17.5008 13.2743 16.6183 13.8521 15.7946C14.2525 15.2458 14.6964 14.729 15.1798 14.249L23.9706 23.8817C23.7503 24.062 23.5465 24.2155 23.3263 24.369C23.0894 24.5316 22.9081 24.6439 22.7613 24.7348L22.7613 24.7348L22.7613 24.7348C22.4634 24.9192 22.308 25.0155 22.1196 25.2653C21.7855 25.742 21.6163 26.3116 21.637 26.89C21.6547 27.7852 21.9251 28.6579 22.418 29.4109C23.1119 30.7408 23.9408 31.9984 24.8921 33.1644C26.2277 34.6387 27.6805 36.0062 29.2367 37.254C30.0757 37.9715 31.0093 38.5745 32.0124 39.0467C32.615 39.39 33.3092 39.5462 34.0039 39.4949C34.4794 39.4272 34.9333 39.2549 35.3315 38.9907C35.6613 38.7831 35.7996 38.6205 35.9875 38.3997L35.9875 38.3996L35.9876 38.3995C36.1289 38.2333 36.2983 38.0342 36.5983 37.7582ZM50.1152 41.8437C50.0597 41.5858 49.8879 40.9826 48.3657 39.6028C47.8247 39.1121 47.5405 38.9114 47.1343 38.6245C46.7781 38.373 46.3282 38.0553 45.5292 37.4179C44.9037 36.8171 44.1935 36.3077 43.4206 35.9053C42.7189 35.5899 41.9591 35.4183 41.1877 35.4012C40.6548 35.3732 40.1215 35.4493 39.6187 35.6252C39.311 35.7535 39.026 35.9291 38.7745 36.1455L47.976 45.5588C48.0679 45.4771 48.1548 45.3979 48.2382 45.3218C48.3038 45.2621 48.3671 45.2043 48.429 45.149C48.6648 44.9329 48.8648 44.7627 49.0364 44.6167L49.0364 44.6167C49.4463 44.268 49.6936 44.0576 49.8769 43.6908C50.1574 43.1166 50.2409 42.4685 50.1152 41.8437Z" fill="black"/>
</svg>
