<svg width="47" height="47" viewBox="0 0 47 47" fill="none" xmlns="http://www.w3.org/2000/svg">
<path fill-rule="evenodd" clip-rule="evenodd" d="M47 23.5C47 36.4787 36.4787 47 23.5 47C10.5213 47 0 36.4787 0 23.5C0 10.5213 10.5213 0 23.5 0C36.4787 0 47 10.5213 47 23.5ZM35.6416 12.1291H12.0478C10.4213 12.1291 9.09853 13.4364 9.09853 15.0439V32.5323C9.09853 34.1398 10.4213 35.4471 12.0478 35.4471H16.4716V40.9356L25.7278 35.4471H35.6416C37.2681 35.4471 38.5908 34.1398 38.5908 32.5323V15.0439C38.5908 13.4364 37.2681 12.1291 35.6416 12.1291ZM35.6416 32.5323H24.9108L19.4208 35.7881V32.5323H12.0478V15.0439H35.6416V32.5323ZM16.1854 26.6153C16.5208 26.7001 16.9532 26.7405 17.4865 26.7405C17.8017 26.7405 18.1169 26.7122 18.4199 26.6516C18.727 26.591 18.9978 26.49 19.2362 26.3405C19.4746 26.195 19.6685 25.997 19.81 25.7465C19.9514 25.4919 20.0241 25.1768 20.0241 24.7929C20.0241 24.2838 19.8706 23.8595 19.5635 23.5201C19.2604 23.1847 18.7836 22.8857 18.1411 22.6271C17.7371 22.4816 17.4381 22.3361 17.2481 22.1947C17.0582 22.0533 16.9612 21.8634 16.9612 21.629C16.9612 21.4108 17.0461 21.233 17.2199 21.1037C17.3896 20.9744 17.7007 20.9097 18.1533 20.9097C18.3755 20.9097 18.6058 20.934 18.8402 20.9825C19.0745 21.031 19.2564 21.0754 19.3938 21.1158C19.4463 21.132 19.5029 21.0916 19.5594 20.9906C19.616 20.8855 19.6604 20.7683 19.6887 20.635C19.7211 20.5016 19.7372 20.3764 19.7372 20.2592C19.7372 20.142 19.7089 20.0693 19.6564 20.045C19.5918 20.0289 19.5231 20.0087 19.4503 19.9844C19.3816 19.9602 19.2887 19.9359 19.1715 19.9157C19.0543 19.8955 18.9089 19.8794 18.7311 19.8672C18.5533 19.8551 18.327 19.8511 18.0563 19.8511C17.6441 19.8511 17.2885 19.8955 16.9895 19.9885C16.6946 20.0814 16.4481 20.2107 16.2582 20.3683C16.0682 20.5259 15.9268 20.7158 15.8339 20.934C15.745 21.1522 15.6965 21.3866 15.6965 21.629C15.6965 21.928 15.745 22.1907 15.842 22.4089C15.9349 22.6271 16.0682 22.817 16.2339 22.9746C16.3996 23.1321 16.5935 23.2695 16.8117 23.3867C17.0299 23.5039 17.2643 23.613 17.5108 23.71C17.9633 23.8878 18.2745 24.0575 18.4523 24.2151C18.626 24.3727 18.7149 24.5787 18.7149 24.8293C18.7149 25.1242 18.5816 25.3263 18.3149 25.4394C18.0482 25.5525 17.7249 25.6091 17.3411 25.6091C16.9693 25.6091 16.6622 25.5768 16.4198 25.5081C16.1773 25.4394 15.9511 25.3667 15.745 25.2939C15.7046 25.2859 15.6642 25.3303 15.6197 25.4273C15.5753 25.5243 15.5429 25.6374 15.5147 25.7627C15.4864 25.8879 15.4662 26.0091 15.4581 26.1263C15.4541 26.2435 15.4621 26.3203 15.4945 26.3526C15.6238 26.4415 15.8541 26.5304 16.1854 26.6153ZM26.0738 26.6797C25.9082 26.6797 25.7991 26.6514 25.7465 26.5948C25.694 26.5382 25.6698 26.4291 25.6698 26.2675V22.0045C25.3506 22.5339 25.1081 22.938 24.9344 23.2289C24.7646 23.5158 24.6394 23.7299 24.5626 23.8633C24.4818 23.9966 24.4333 24.0734 24.4171 24.0976C24.401 24.1219 24.3929 24.1421 24.3929 24.1502C24.3299 24.2613 24.2805 24.3351 24.2541 24.3746L24.2474 24.3845C24.2191 24.4249 24.1585 24.4411 24.0737 24.4411H23.8838C23.7787 24.4411 23.71 24.4209 23.6777 24.3845C23.6494 24.3482 23.6009 24.2714 23.5363 24.1502L22.32 22.0288V26.3402C22.32 26.4453 22.3038 26.5302 22.2675 26.5908C22.2311 26.6514 22.1382 26.6837 21.9887 26.6837H21.4876C21.3745 26.6837 21.2775 26.6635 21.1926 26.6271C21.1118 26.5908 21.0674 26.4695 21.0674 26.2675V20.4206C21.0674 20.2589 21.0997 20.1499 21.1603 20.0973C21.2169 20.0448 21.3017 20.0205 21.4149 20.0205H22.0089C22.0978 20.0205 22.1705 20.0327 22.2311 20.0569C22.2917 20.0812 22.3523 20.1418 22.417 20.2387L24.0009 22.8208L25.5849 20.263C25.6334 20.1741 25.69 20.1094 25.7587 20.0731C25.8274 20.0367 25.892 20.0205 25.9567 20.0205H26.6113C26.7608 20.0205 26.8497 20.0529 26.8739 20.1175C26.8982 20.1822 26.9103 20.2872 26.9103 20.4327V26.3281C26.9103 26.4493 26.8941 26.5382 26.8618 26.5948C26.8295 26.6514 26.7365 26.6797 26.587 26.6797H26.0738ZM28.7491 26.6153C29.0845 26.7001 29.5168 26.7405 30.0462 26.7405C30.3654 26.7405 30.6765 26.7122 30.9836 26.6516C31.2907 26.591 31.5614 26.49 31.7998 26.3405C32.0382 26.195 32.2281 25.997 32.3736 25.7465C32.515 25.4919 32.5878 25.1768 32.5878 24.7929C32.5878 24.2838 32.4342 23.8595 32.1271 23.5201C31.82 23.1847 31.3473 22.8857 30.7048 22.6271C30.2967 22.4816 30.0017 22.3361 29.8078 22.1947C29.6178 22.0533 29.5249 21.8634 29.5249 21.629C29.5249 21.4108 29.6098 21.233 29.7795 21.1037C29.9492 20.9744 30.2603 20.9097 30.7169 20.9097C30.9392 20.9097 31.1654 20.934 31.3998 20.9825C31.6342 21.031 31.82 21.0754 31.9534 21.1158C32.0099 21.132 32.0665 21.0916 32.1231 20.9906C32.1756 20.8855 32.2201 20.7683 32.2524 20.635C32.2847 20.5016 32.3009 20.3764 32.3009 20.2592C32.3009 20.142 32.2726 20.0693 32.216 20.045C32.1514 20.0289 32.0827 20.0087 32.014 19.9844C31.9413 19.9602 31.8483 19.9359 31.7352 19.9157C31.618 19.8955 31.4725 19.8794 31.2907 19.8672C31.1129 19.8551 30.8907 19.8511 30.6199 19.8511C30.2078 19.8511 29.8522 19.8955 29.5532 19.9885C29.2542 20.0814 29.0117 20.2107 28.8178 20.3683C28.6279 20.5259 28.4864 20.7158 28.3975 20.934C28.3046 21.1522 28.2602 21.3866 28.2602 21.629C28.2602 21.928 28.3046 22.1866 28.4016 22.4089C28.4986 22.6271 28.6279 22.817 28.7935 22.9746C28.9632 23.1321 29.1532 23.2695 29.3754 23.3867C29.5936 23.5039 29.8239 23.613 30.0704 23.71C30.523 23.8878 30.8381 24.0575 31.0119 24.2151C31.1897 24.3727 31.2745 24.5787 31.2745 24.8293C31.2745 25.1242 31.1412 25.3263 30.8745 25.4394C30.6078 25.5525 30.2846 25.6091 29.9047 25.6091C29.5289 25.6091 29.2218 25.5768 28.9794 25.5081C28.741 25.4394 28.5147 25.3667 28.3086 25.2939C28.2682 25.2859 28.2238 25.3303 28.1834 25.4273C28.1389 25.5243 28.1026 25.6374 28.0743 25.7627C28.046 25.8879 28.0298 26.0091 28.0218 26.1263C28.0137 26.2435 28.0258 26.3203 28.0581 26.3526C28.1834 26.4415 28.4137 26.5304 28.7491 26.6153Z" fill="white"/>
</svg>
