<svg width="61" height="61" viewBox="0 0 61 61" fill="none" xmlns="http://www.w3.org/2000/svg">
<path fill-rule="evenodd" clip-rule="evenodd" d="M61 30.5C61 47.3447 47.3447 61 30.5 61C13.6553 61 0 47.3447 0 30.5C0 13.6553 13.6553 0 30.5 0C47.3447 0 61 13.6553 61 30.5ZM46.2603 15.7412H15.6385C13.5275 15.7412 11.8108 17.4379 11.8108 19.5242V42.222C11.8108 44.3083 13.5275 46.005 15.6385 46.005H21.3801V53.1283L33.3934 46.005H46.2603C48.3713 46.005 50.0881 44.3083 50.0881 42.222V19.5242C50.0881 17.4379 48.3713 15.7412 46.2603 15.7412ZM46.2603 42.222H32.3332L25.2078 46.4476V42.222H15.6385V19.5242H46.2603V42.222ZM21.0045 34.5408C21.4398 34.6509 22.001 34.7033 22.6932 34.7033C23.1023 34.7033 23.5113 34.6666 23.9047 34.588C24.3032 34.5093 24.6546 34.3782 24.964 34.1841C25.2734 33.9953 25.5252 33.7384 25.7087 33.4132C25.8923 33.0828 25.9867 32.6738 25.9867 32.1756C25.9867 31.5148 25.7874 30.9641 25.3888 30.5236C24.9955 30.0883 24.3767 29.7002 23.5428 29.3646C23.0184 29.1758 22.6303 28.987 22.3838 28.8034C22.1373 28.6199 22.0115 28.3734 22.0115 28.0692C22.0115 27.786 22.1216 27.5553 22.3471 27.3875C22.5674 27.2196 22.9712 27.1357 23.5585 27.1357C23.847 27.1357 24.1459 27.1672 24.4501 27.2301C24.7542 27.2931 24.9902 27.3508 25.1686 27.4032C25.2367 27.4242 25.3101 27.3717 25.3836 27.2406C25.457 27.1043 25.5147 26.9522 25.5514 26.7791C25.5933 26.6061 25.6143 26.4435 25.6143 26.2914C25.6143 26.1393 25.5776 26.0449 25.5094 26.0134C25.4255 25.9925 25.3364 25.9662 25.242 25.9348C25.1528 25.9033 25.0322 25.8718 24.8801 25.8456C24.728 25.8194 24.5392 25.7984 24.3085 25.7827C24.0777 25.767 23.784 25.7617 23.4327 25.7617C22.8977 25.7617 22.4362 25.8194 22.0482 25.94C21.6653 26.0606 21.3454 26.2285 21.0989 26.433C20.8525 26.6375 20.6689 26.884 20.5483 27.1672C20.4329 27.4504 20.37 27.7546 20.37 28.0692C20.37 28.4573 20.4329 28.7982 20.5588 29.0814C20.6794 29.3646 20.8525 29.6111 21.0675 29.8156C21.2825 30.0201 21.5342 30.1984 21.8174 30.3505C22.1006 30.5026 22.4048 30.6442 22.7247 30.7701C23.3121 31.0008 23.7159 31.2211 23.9466 31.4256C24.1721 31.6301 24.2875 31.8976 24.2875 32.2228C24.2875 32.6056 24.1144 32.8678 23.7683 33.0147C23.4222 33.1615 23.0026 33.2349 22.5044 33.2349C22.0219 33.2349 21.6234 33.193 21.3087 33.1038C20.994 33.0147 20.7004 32.9203 20.4329 32.8259C20.3805 32.8154 20.328 32.8731 20.2703 32.9989C20.2126 33.1248 20.1707 33.2716 20.134 33.4342C20.0973 33.5968 20.071 33.7541 20.0606 33.9062C20.0553 34.0583 20.0658 34.1579 20.1078 34.1999C20.2756 34.3153 20.5745 34.4306 21.0045 34.5408ZM33.8445 34.6261C33.6295 34.6261 33.4879 34.5894 33.4197 34.516C33.3515 34.4425 33.3201 34.3009 33.3201 34.0912V28.5584C32.9058 29.2454 32.5911 29.7698 32.3656 30.1474C32.1453 30.5198 31.9827 30.7977 31.8831 30.9708C31.7782 31.1438 31.7153 31.2435 31.6943 31.2749C31.6733 31.3064 31.6628 31.3326 31.6628 31.3431C31.5811 31.4873 31.517 31.5831 31.4827 31.6344L31.4826 31.6344L31.474 31.6473C31.4373 31.6997 31.3587 31.7207 31.2485 31.7207H31.0021C30.8657 31.7207 30.7765 31.6945 30.7346 31.6473C30.6979 31.6001 30.635 31.5005 30.551 31.3431L28.9725 28.5898V34.1856C28.9725 34.3219 28.9515 34.432 28.9043 34.5107C28.8571 34.5894 28.7365 34.6313 28.5425 34.6313H27.8922C27.7453 34.6313 27.6194 34.6051 27.5093 34.5579C27.4044 34.5107 27.3467 34.3534 27.3467 34.0912V26.5026C27.3467 26.2928 27.3887 26.1512 27.4674 26.083C27.5408 26.0149 27.6509 25.9834 27.7978 25.9834H28.5687C28.6841 25.9834 28.7785 25.9991 28.8571 26.0306C28.9358 26.0621 29.0144 26.1407 29.0984 26.2666L31.1541 29.6177L33.2099 26.2981C33.2729 26.1827 33.3463 26.0988 33.4354 26.0516C33.5246 26.0044 33.6085 25.9834 33.6924 25.9834H34.542C34.736 25.9834 34.8514 26.0254 34.8829 26.1093C34.9143 26.1932 34.9301 26.3295 34.9301 26.5183V34.1698C34.9301 34.3272 34.9091 34.4425 34.8671 34.516C34.8252 34.5894 34.7046 34.6261 34.5105 34.6261H33.8445ZM37.3168 34.5408C37.7521 34.6509 38.3132 34.7033 39.0002 34.7033C39.4145 34.7033 39.8183 34.6666 40.2169 34.588C40.6155 34.5093 40.9669 34.3782 41.2763 34.1841C41.5857 33.9953 41.8322 33.7384 42.021 33.4132C42.2045 33.0828 42.2989 32.6738 42.2989 32.1756C42.2989 31.5148 42.0996 30.9641 41.7011 30.5236C41.3025 30.0883 40.6889 29.7002 39.8551 29.3646C39.3254 29.1758 38.9425 28.987 38.6908 28.8034C38.4443 28.6199 38.3237 28.3734 38.3237 28.0692C38.3237 27.786 38.4338 27.5553 38.6541 27.3875C38.8744 27.2196 39.2782 27.1357 39.8708 27.1357C40.1592 27.1357 40.4529 27.1672 40.7571 27.2301C41.0613 27.2931 41.3025 27.3508 41.4756 27.4032C41.549 27.4242 41.6224 27.3717 41.6958 27.2406C41.764 27.1043 41.8217 26.9522 41.8636 26.7791C41.9056 26.6061 41.9266 26.4435 41.9266 26.2914C41.9266 26.1393 41.8899 26.0449 41.8164 26.0134C41.7325 25.9925 41.6434 25.9662 41.5542 25.9348C41.4598 25.9033 41.3392 25.8718 41.1924 25.8456C41.0403 25.8194 40.8515 25.7984 40.6155 25.7827C40.3847 25.767 40.0963 25.7617 39.7449 25.7617C39.21 25.7617 38.7485 25.8194 38.3604 25.94C37.9723 26.0606 37.6577 26.2285 37.4059 26.433C37.1595 26.6375 36.9759 26.884 36.8605 27.1672C36.7399 27.4504 36.6822 27.7546 36.6822 28.0692C36.6822 28.4573 36.7399 28.793 36.8658 29.0814C36.9916 29.3646 37.1595 29.6111 37.3745 29.8156C37.5947 30.0201 37.8412 30.1984 38.1297 30.3505C38.4129 30.5026 38.7118 30.6442 39.0317 30.7701C39.6191 31.0008 40.0281 31.2211 40.2536 31.4256C40.4844 31.6301 40.5945 31.8976 40.5945 32.2228C40.5945 32.6056 40.4214 32.8678 40.0753 33.0147C39.7292 33.1615 39.3096 33.2349 38.8167 33.2349C38.329 33.2349 37.9304 33.193 37.6157 33.1038C37.3063 33.0147 37.0126 32.9203 36.7452 32.8259C36.6927 32.8154 36.635 32.8731 36.5826 32.9989C36.5249 33.1248 36.4777 33.2716 36.441 33.4342C36.4043 33.5968 36.3833 33.7541 36.3728 33.9062C36.3623 34.0583 36.3781 34.1579 36.42 34.1999C36.5826 34.3153 36.8815 34.4306 37.3168 34.5408Z" fill="black"/>
</svg>
