<svg width="61" height="61" viewBox="0 0 61 61" fill="none" xmlns="http://www.w3.org/2000/svg">
<path d="M17.5342 19.6813C17.2804 19.6709 17.0271 19.711 16.7888 19.799C16.5505 19.8871 16.3321 20.0214 16.146 20.1944C15.9599 20.3673 15.8099 20.5753 15.7046 20.8065C15.5993 21.0377 15.5409 21.2874 15.5326 21.5413C15.523 21.7954 15.5645 22.0489 15.6546 22.2867C15.7448 22.5244 15.8817 22.7417 16.0573 22.9257C16.2329 23.1096 16.4436 23.2564 16.6769 23.3575C16.9103 23.4585 17.1615 23.5117 17.4158 23.514C17.9287 23.5327 18.4285 23.3491 18.8072 23.0027C19.186 22.6564 19.4134 22.175 19.4404 21.6625C19.441 21.1497 19.2427 20.6567 18.8872 20.2872C18.5316 19.9177 18.0466 19.7005 17.5342 19.6813Z" fill="black"/>
<path d="M33.3895 32.0002C33.1778 31.9971 32.9677 32.036 32.7712 32.1147C32.5747 32.1934 32.3957 32.3103 32.2447 32.4587C32.0937 32.607 31.9736 32.7838 31.8913 32.9789C31.8091 33.1739 31.7664 33.3833 31.7656 33.595C31.7649 33.8067 31.8061 34.0164 31.887 34.212C31.9678 34.4077 32.0867 34.5853 32.2367 34.7347C32.3866 34.8841 32.5648 35.0023 32.7607 35.0823C32.9567 35.1624 33.1665 35.2028 33.3782 35.2013C33.5899 35.2043 33.8 35.1654 33.9965 35.0867C34.1931 35.008 34.372 34.8911 34.523 34.7428C34.674 34.5944 34.7942 34.4176 34.8764 34.2226C34.9586 34.0275 35.0013 33.8181 35.0021 33.6064C35.0028 33.3947 34.9616 33.185 34.8807 32.9894C34.7999 32.7938 34.681 32.6161 34.531 32.4667C34.3811 32.3173 34.203 32.1992 34.007 32.1191C33.8111 32.039 33.6012 31.9986 33.3895 32.0002Z" fill="black"/>
<path d="M29.812 23.5233C30.0654 23.5216 30.3159 23.4698 30.5492 23.3709C30.7825 23.272 30.994 23.128 31.1713 22.947C31.3487 22.7661 31.4886 22.5518 31.5828 22.3166C31.6771 22.0814 31.7238 21.8298 31.7205 21.5765C31.7171 21.3231 31.6636 21.0729 31.5632 20.8402C31.4627 20.6076 31.3172 20.3972 31.1351 20.221C30.953 20.0448 30.7378 19.9064 30.5019 19.8137C30.2661 19.7211 30.0142 19.676 29.7609 19.681C29.2483 19.6929 28.7603 19.9029 28.3992 20.2669C28.0381 20.6309 27.832 21.1206 27.8242 21.6333C27.8299 21.8881 27.8859 22.1393 27.989 22.3724C28.0921 22.6056 28.2403 22.816 28.4251 22.9917C28.6098 23.1673 28.8274 23.3047 29.0655 23.3959C29.3035 23.4872 29.5572 23.5305 29.812 23.5233Z" fill="black"/>
<path d="M43.3588 32.0039C42.9482 32.0068 42.5544 32.1673 42.2588 32.4522C41.9632 32.7371 41.7883 33.1247 41.7703 33.5349C41.7607 33.8488 41.8448 34.1584 42.012 34.4242C42.1792 34.69 42.4219 34.8999 42.7089 35.0271C42.996 35.1544 43.3145 35.1931 43.6237 35.1385C43.9329 35.0839 44.2188 34.9383 44.4449 34.7204C44.671 34.5025 44.827 34.2221 44.893 33.9152C44.959 33.6082 44.932 33.2885 44.8154 32.9969C44.6988 32.7053 44.498 32.4551 44.2385 32.2783C43.9791 32.1014 43.6728 32.0059 43.3588 32.0039Z" fill="black"/>
<path d="M30.5 0C24.4677 0 18.5708 1.78879 13.5551 5.14018C8.53942 8.49156 4.63016 13.255 2.32169 18.8281C0.0132152 24.4013 -0.590786 30.5338 0.586062 36.4502C1.76291 42.3667 4.66775 47.8012 8.93325 52.0667C13.1988 56.3322 18.6333 59.2371 24.5498 60.4139C30.4662 61.5908 36.5987 60.9868 42.1718 58.6783C47.745 56.3698 52.5084 52.4606 55.8598 47.4449C59.2112 42.4292 61 36.5323 61 30.5C61 22.4109 57.7866 14.6531 52.0668 8.93324C46.3469 3.21338 38.5891 0 30.5 0ZM19.3231 38.4458C18.771 38.383 18.2123 38.4775 17.7116 38.7183C16.218 39.5611 14.7862 40.5128 13.0891 41.5736C13.4006 40.1653 13.6021 38.9319 13.959 37.7456C14.2213 36.8739 14.0997 36.3886 13.2967 35.8207C8.13958 32.1794 5.96569 26.731 7.59254 21.1211C9.0978 15.9316 12.7938 12.7835 17.8159 11.1439C24.6708 8.90465 32.3743 11.1886 36.5426 16.6309C38.0705 18.5855 38.9988 20.9413 39.2151 23.4128C34.9191 23.6374 31.1835 24.9395 28.1507 27.8817C25.0863 30.8545 23.6875 34.4968 24.0697 39.0124C22.3907 38.8046 20.8611 38.5752 19.3231 38.4458ZM49.552 45.494C48.2275 46.6692 47.7512 47.6362 48.6008 49.1853C48.7578 49.4713 48.7754 49.8335 48.8666 50.1946C47.5063 49.5888 46.2585 48.6802 44.93 48.5414C43.6066 48.4032 42.2152 49.1666 40.8307 49.308C36.6132 49.7394 32.8347 48.564 29.7192 45.6829C23.7937 40.2023 24.6404 31.7993 31.4959 27.3063C37.5887 23.3146 46.5245 24.6446 50.8203 30.184C54.569 35.0185 54.1283 41.4342 49.552 45.4942V45.494Z" fill="black"/>
</svg>
