<svg width="60" height="60" viewBox="0 0 60 60" fill="none" xmlns="http://www.w3.org/2000/svg">
<path d="M29.9992 0C13.4576 0 0 13.4581 0 29.9996C0 46.541 13.4576 60 29.9992 60C46.5409 60 60 46.5419 60 29.9996C60 13.4572 46.5411 0 29.9992 0ZM40.3885 25.7421L53.2299 25.8258L53.2378 24.615C54.1424 28.3944 54.0799 32.3408 53.0562 36.0897L40.2737 36.0067C40.4255 34.0147 40.5098 31.9983 40.5098 29.9996C40.5101 28.5855 40.4645 27.1606 40.3885 25.7421ZM52.1803 21.2236L40.0017 21.1443C39.3529 15.5503 38.0634 10.4078 36.0831 6.94173C39.6947 7.90096 43.0316 9.69223 45.8268 12.1722C48.622 14.6522 50.798 17.752 52.1805 21.2236H52.1803ZM24.8496 40.5015L35.1394 40.5683C33.8548 48.7327 31.2938 52.9258 29.9992 52.9258C28.7047 52.9258 26.1303 48.7106 24.8496 40.5015ZM35.6761 35.9769L24.3173 35.9028C24.173 34.0743 24.0849 32.1166 24.0849 29.9996C24.0849 28.4628 24.1375 27.022 24.2164 25.637L35.788 25.7123C35.864 27.075 35.9153 28.4904 35.9153 29.9996C35.9151 32.1457 35.8242 34.1271 35.6761 35.9769ZM29.9992 7.07425C31.3792 7.07425 34.1993 11.8438 35.3753 21.1145L24.6334 21.0444C25.8147 11.8199 28.6232 7.07425 29.9992 7.07425ZM23.9185 6.94129C21.953 10.3802 20.6675 15.4697 20.0139 21.0147L7.92507 20.936C9.33424 17.5299 11.5106 14.4951 14.2846 12.0677C17.0586 9.64033 20.3555 7.886 23.9185 6.94129V6.94129ZM6.74576 24.6791L6.74007 25.5235L19.6178 25.6072C19.5372 27.0702 19.4901 28.5406 19.4901 29.9996C19.4901 31.9529 19.5708 33.9247 19.7155 35.873L6.86645 35.7896C5.92313 32.1511 5.8817 28.3373 6.74576 24.6791V24.6791ZM8.54189 40.3955L20.2036 40.4713C20.9032 45.4393 22.1344 49.9306 23.9272 53.0607C20.6035 52.1786 17.5089 50.5908 14.8541 48.4053C12.1992 46.2197 10.0465 43.4878 8.54233 40.3955H8.54189ZM36.0717 53.0607C37.8483 49.9574 39.0736 45.5159 39.7763 40.5975L51.3232 40.6724C49.8022 43.6987 47.6563 46.3679 45.0273 48.5034C42.3983 50.639 39.346 52.1923 36.0721 53.0607H36.0717Z" fill="white"/>
</svg>
