<svg width="57" height="57" viewBox="0 0 57 57" fill="none" xmlns="http://www.w3.org/2000/svg">
<path d="M28.4986 11.4824C27.4773 11.4824 25.3925 15.005 24.5156 21.8524L32.4892 21.9043C31.6157 15.0229 29.5229 11.4824 28.4986 11.4824Z" fill="black"/>
<path d="M12.5742 36.2168C13.6906 38.5121 15.2884 40.5399 17.2589 42.1622C19.2294 43.7845 21.5263 44.9633 23.9932 45.6182C22.6632 43.2947 21.7491 39.9607 21.2299 36.273L12.5742 36.2168Z" fill="black"/>
<path d="M24.2068 25.2617C24.1485 26.2896 24.1094 27.3593 24.1094 28.4999C24.1094 30.0714 24.1747 31.5245 24.2821 32.882L32.7133 32.9368C32.8233 31.5636 32.8906 30.0928 32.8906 28.4999C32.8906 27.3798 32.8526 26.3291 32.7956 25.3176L24.2068 25.2617Z" fill="black"/>
<path d="M20.7002 28.5001C20.7002 27.4171 20.7352 26.3258 20.7952 25.2397L11.2365 25.1778L11.2407 24.5508C10.5991 27.2662 10.6299 30.0972 11.3304 32.7981L20.8684 32.8601C20.7601 31.4134 20.7002 29.9498 20.7002 28.5001Z" fill="black"/>
<path d="M23.9849 11.3838C21.3401 12.085 18.8929 13.3872 16.8338 15.189C14.7747 16.9908 13.1593 19.2436 12.1133 21.7719L21.0866 21.8302C21.5719 17.7142 22.526 13.9366 23.9849 11.3838Z" fill="black"/>
<path d="M28.4984 45.5173C29.4594 45.5173 31.3603 42.4048 32.3138 36.3445L24.6758 36.2949C25.6262 42.3888 27.5351 45.5173 28.4984 45.5173Z" fill="black"/>
<path d="M33.0078 45.6177C35.4379 44.9732 37.7036 43.8203 39.6551 42.2353C41.6066 40.6503 43.1996 38.6691 44.3288 36.4229L35.7577 36.3672C35.2361 40.0173 34.3266 43.314 33.0078 45.6177Z" fill="black"/>
<path d="M51.4471 0H5.55294C4.08021 0 2.6678 0.58504 1.62642 1.62642C0.58504 2.6678 0 4.08021 0 5.55294L0 51.4471C0 52.9198 0.58504 54.3322 1.62642 55.3736C2.6678 56.415 4.08021 57 5.55294 57H51.4471C52.9198 57 54.3322 56.415 55.3736 55.3736C56.415 54.3322 57 52.9198 57 51.4471V5.55294C57 4.08021 56.415 2.6678 55.3736 1.62642C54.3322 0.58504 52.9198 0 51.4471 0ZM28.5 50.768C24.0958 50.768 19.7905 49.462 16.1286 47.0152C12.4666 44.5683 9.61246 41.0905 7.92705 37.0216C6.24164 32.9526 5.80066 28.4753 6.65987 24.1557C7.51909 19.8362 9.63991 15.8684 12.7541 12.7541C15.8684 9.63991 19.8362 7.51909 24.1557 6.65987C28.4753 5.80066 32.9526 6.24164 37.0216 7.92705C41.0905 9.61246 44.5683 12.4666 47.0152 16.1286C49.462 19.7905 50.768 24.0958 50.768 28.5C50.7612 34.4038 48.4129 40.0638 44.2384 44.2384C40.0638 48.4129 34.4038 50.7612 28.5 50.768Z" fill="black"/>
<path d="M33.0156 11.3838C34.4855 13.9566 35.4425 17.7737 35.9241 21.9261L44.9647 21.985C43.9385 19.408 42.3233 17.107 40.2484 15.2662C38.1735 13.4253 35.6965 12.0957 33.0156 11.3838Z" fill="black"/>
<path d="M36.3002 28.4998C36.3002 29.9829 36.2377 31.4803 36.125 32.9589L45.613 33.0204C46.3731 30.2377 46.4195 27.3083 45.7479 24.5029L45.742 25.4016L36.2101 25.3397C36.2664 26.3921 36.3002 27.4498 36.3002 28.4998Z" fill="black"/>
</svg>
