<svg width="54" height="54" viewBox="0 0 54 54" fill="none" xmlns="http://www.w3.org/2000/svg">
<path d="M27.339 0.525391C22.7648 0.526668 18.2711 1.7227 14.3067 3.99399C10.3424 6.26528 7.04631 9.53229 4.74779 13.4686C2.44927 17.4049 1.22882 21.8726 1.20837 26.4255C1.18792 30.9783 2.36819 35.4567 4.63126 39.4133L0.796875 53.2181L15.1112 49.5263C18.6181 51.3739 22.5016 52.4025 26.4673 52.5339C30.433 52.6654 34.3767 51.8963 37.9994 50.2849C41.622 48.6736 44.8284 46.2624 47.3755 43.2341C49.9225 40.2058 51.7433 36.64 52.6998 32.807C53.6563 28.9741 53.7233 24.9747 52.8958 21.1122C52.0683 17.2496 50.368 13.6253 47.9239 10.5142C45.4797 7.403 42.3559 4.88666 38.7892 3.15596C35.2226 1.42527 31.3069 0.525669 27.339 0.525391ZM27.2449 48.322C23.038 48.328 18.9208 47.1126 15.3974 44.8247C15.3581 44.8499 15.3171 44.8723 15.2746 44.8917L15.2668 44.8836L7.04078 47.003L9.24431 39.0343L9.18132 39.2623C9.19699 39.2263 9.21457 39.1913 9.234 39.1572C9.24762 39.0696 9.27069 38.9837 9.30281 38.9011C6.56061 34.9115 5.23957 30.1229 5.55038 25.2989C5.86119 20.4749 7.78596 15.8934 11.0177 12.2852C14.2494 8.67694 18.602 6.24972 23.3812 5.39065C28.1604 4.53158 33.091 5.29014 37.3866 7.54535C41.6822 9.80056 45.0954 13.4225 47.0818 17.8336C49.0682 22.2446 49.5134 27.1907 48.3464 31.883C47.1795 36.5752 44.4675 40.7434 40.6431 43.7227C36.8187 46.702 32.1021 48.3209 27.2455 48.3211L27.2449 48.322Z" fill="black"/>
<path d="M0 54L4.03073 39.4867C0.91106 33.9213 -0.093306 27.4247 1.20105 21.1833C2.4954 14.9418 6.00211 9.37201 11.0808 5.49099C16.1595 1.60997 22.4712 -0.32331 28.8634 0.0442115C35.2556 0.411733 41.3018 3.05553 45.8977 7.49279C50.4936 11.9301 53.3327 17.8647 53.8964 24.213C54.4601 30.5613 52.7108 36.8995 48.9681 42.0704C45.2254 47.2412 39.7388 50.8995 33.5105 52.3773C27.2821 53.8551 20.7275 53.0537 15.0437 50.1195L0 54ZM27.3405 1.08289C22.8645 1.08423 18.4672 2.25464 14.5879 4.47719C10.7087 6.69974 7.48329 9.8966 5.23402 13.7484C2.98475 17.6002 1.79035 21.972 1.77015 26.4271C1.74996 30.8822 2.90468 35.2646 5.11894 39.1364L5.23459 39.3372L1.59701 52.4356L15.1829 48.933L15.3754 49.0345C18.8071 50.842 22.6073 51.8481 26.4877 51.9763C30.3682 52.1046 34.227 51.3517 37.7717 49.7748C41.3163 48.1978 44.4536 45.8383 46.9458 42.875C49.438 39.9117 51.2195 36.4225 52.1554 32.6719C53.0912 28.9214 53.1568 25.008 52.3471 21.2285C51.5375 17.449 49.8738 13.9026 47.4823 10.8582C45.0908 7.81385 42.0342 5.35146 38.5444 3.65775C35.0546 1.96405 31.2231 1.08351 27.3405 1.08289ZM27.2464 48.8795C23.0403 48.8843 18.9193 47.7 15.3631 45.4643L15.1564 45.5574L15.1008 45.5027L6.24435 47.7852L8.67964 38.9787C5.92696 34.8606 4.63514 29.9454 5.00925 25.0132C5.38336 20.0809 7.40197 15.4144 10.7446 11.7544C14.0873 8.09436 18.5625 5.65053 23.4597 4.81085C28.357 3.97116 33.3958 4.78374 37.7761 7.11959C42.1565 9.45544 45.6275 13.1807 47.638 17.704C49.6486 22.2274 50.0836 27.2895 48.8739 32.087C47.6642 36.8845 44.8792 41.1423 40.961 44.1846C37.0427 47.2268 32.2158 48.8793 27.2464 48.8795ZM15.4025 44.1612L15.7049 44.3571C20.1094 47.2038 25.4201 48.3187 30.6045 47.4852C35.789 46.6517 40.4768 43.9292 43.7569 39.847C47.037 35.7648 48.675 30.6145 48.3525 25.3973C48.0299 20.18 45.77 15.2684 42.0118 11.6172C38.2536 7.9661 33.2658 5.83623 28.0178 5.64161C22.7698 5.447 17.6366 7.20155 13.6159 10.5642C9.59518 13.9269 6.97428 18.6575 6.26261 23.8364C5.55094 29.0154 6.79934 34.2727 9.76516 38.5865L9.93326 38.8303L9.82456 39.1056C9.80708 39.1512 9.79453 39.1985 9.78712 39.2466L9.77121 39.3452L9.72212 39.432C9.71764 39.4398 9.71338 39.4479 9.70912 39.4557L7.83911 46.222L15.1055 44.3493L15.4025 44.1612Z" fill="black"/>
<path d="M19.9348 14.836C19.1972 14.5511 18.3892 14.5 17.6212 14.6896C17.2436 14.7922 16.8843 14.9525 16.5561 15.1648C15.2487 16.0007 14.7204 17.4051 14.4996 18.0162C13.7588 20.0647 13.8779 22.0391 14.2058 23.0606C15.9135 28.3792 21.091 33.2932 24.1216 35.4889C24.5909 35.8289 24.9811 36.0944 25.2234 36.2566C26.5712 37.0001 27.9702 37.6475 29.41 38.1939C30.8962 38.757 31.752 39.0736 33.009 39.1809C34.2117 39.3336 35.4336 39.1959 36.5715 38.7793C37.4448 38.4354 38.2429 37.9265 38.9218 37.2806C39.3365 36.9308 39.6848 36.5098 39.9502 36.0377C40.6925 34.6132 40.335 32.921 40.3283 32.9208C40.3263 32.9208 40.3173 33.1133 40.3173 33.1133L40.0602 32.6382L34.4791 30.0056C34.3056 29.932 34.1153 29.9067 33.9284 29.9324C33.7062 29.965 33.5002 30.0675 33.3407 30.2249C32.5573 31.1633 31.7738 32.1015 30.9904 33.0395C30.8205 33.1357 30.6333 33.1978 30.4394 33.2224C30.0387 33.245 29.6408 33.1427 29.301 32.93C28.244 32.4068 28.4493 32.65 27.6117 32.1989C26.8558 31.7816 26.1426 31.2919 25.4823 30.7367C24.5071 29.9598 23.5981 29.104 22.7646 28.178C21.5453 26.8194 21.8136 26.781 21.0753 25.9116C20.8418 25.6236 20.6784 25.2858 20.5978 24.9246C20.5549 24.7941 20.5549 24.6535 20.5978 24.523C20.703 24.2678 20.8536 24.1768 21.1486 23.9381C21.3196 23.7789 21.4792 23.6079 21.626 23.4263C21.9545 23.0991 22.2385 22.7304 22.4708 22.3298C22.6437 21.9615 22.7644 21.571 22.8294 21.1697C21.9357 19.1225 21.2351 17.3221 20.3414 15.2752C20.2654 15.1528 20.0084 14.9578 19.9348 14.836Z" fill="black"/>
</svg>
