<svg width="22" height="25" viewBox="0 0 22 25" fill="none" xmlns="http://www.w3.org/2000/svg">
<path d="M19.934 10.2348V20.8335C19.934 21.1317 19.8752 21.427 19.7611 21.7025C19.647 21.978 19.4797 22.2283 19.2688 22.4392C19.0579 22.65 18.8076 22.8173 18.532 22.9314C18.2565 23.0455 17.9612 23.1042 17.6629 23.1042H4.16702C3.5647 23.1042 2.98706 22.865 2.56116 22.4392C2.13526 22.0133 1.89599 21.4357 1.89599 20.8335V8.07341C1.89599 7.47117 2.13526 6.89359 2.56116 6.46773C2.98706 6.04188 3.5647 5.80264 4.16702 5.80264H14.1835V3.90686H4.16702C3.06185 3.90686 2.00196 4.34583 1.22049 5.12721C0.439024 5.90859 0 6.96837 0 8.07341L0 20.8335C0 21.9385 0.439024 22.9983 1.22049 23.7797C2.00196 24.5611 3.06185 25 4.16702 25H17.6629C18.7681 25 19.828 24.5611 20.6095 23.7797C21.3909 22.9983 21.83 21.9385 21.83 20.8335V10.2348H19.934Z" fill="white"/>
<path d="M10.1705 16.1569L6.55322 9.74126L5 12.4961L10.1705 21.6665L20.8332 2.75483L19.28 0L10.1705 16.1569Z" fill="white"/>
</svg>
