<svg width="22" height="14" viewBox="0 0 22 14" fill="none" xmlns="http://www.w3.org/2000/svg">
<path d="M21.0261 6.442C20.8491 6.179 16.6371 0 11.1961 0C5.75509 0 1.54309 6.179 1.36609 6.442L0.996094 7L1.37009 7.558C1.54309 7.821 5.75509 14 11.1961 14C16.6371 14 20.8491 7.821 21.0261 7.558L21.3961 7L21.0261 6.442ZM11.1961 12C7.66509 12 4.53209 8.41 3.43809 7C4.53209 5.59 7.66509 2 11.1961 2C14.7271 2 17.8601 5.59 18.9541 7C17.8601 8.41 14.7271 12 11.1961 12Z" fill="#6C6C6C"/>
<path d="M11.1953 3C10.4042 3 9.63083 3.2346 8.97303 3.67412C8.31524 4.11365 7.80255 4.73836 7.4998 5.46927C7.19705 6.20017 7.11783 7.00444 7.27217 7.78036C7.42651 8.55629 7.80748 9.26902 8.36689 9.82843C8.9263 10.3878 9.63903 10.7688 10.415 10.9231C11.1909 11.0775 11.9951 10.9983 12.726 10.6955C13.457 10.3928 14.0817 9.88008 14.5212 9.22228C14.9607 8.56448 15.1953 7.79113 15.1953 7C15.1953 5.93913 14.7739 4.92172 14.0237 4.17157C13.2736 3.42143 12.2562 3 11.1953 3ZM11.1953 9C10.7998 9 10.4131 8.8827 10.0842 8.66294C9.75528 8.44318 9.49893 8.13082 9.34756 7.76537C9.19618 7.39991 9.15657 6.99778 9.23374 6.60982C9.31091 6.22186 9.5014 5.86549 9.7811 5.58579C10.0608 5.30608 10.4172 5.1156 10.8051 5.03843C11.1931 4.96126 11.5952 5.00087 11.9607 5.15224C12.3261 5.30362 12.6385 5.55996 12.8583 5.88886C13.078 6.21776 13.1953 6.60444 13.1953 7C13.1953 7.53043 12.9846 8.03914 12.6095 8.41421C12.2345 8.78929 11.7257 9 11.1953 9Z" fill="#6C6C6C"/>
</svg>
