<svg width="36" height="36" viewBox="0 0 36 36" fill="none" xmlns="http://www.w3.org/2000/svg">
<path d="M22.5 15H13.5C11.019 15 9 17.019 9 19.5C9 21.981 11.019 24 13.5 24H18V27H13.5C9.3645 27 6 23.6355 6 19.5C6 15.3645 9.3645 12 13.5 12H22.5V7.5L30 13.5L22.5 19.5V15Z" fill="#2776DF"/>
</svg>
