<svg width="48" height="48" viewBox="0 0 48 48" fill="none" xmlns="http://www.w3.org/2000/svg">
<path d="M37.3258 26.5934C35.4796 26.5947 33.6654 27.076 32.0606 27.9904C30.4559 28.9048 29.1155 30.2209 28.1708 31.8099L17.9164 24.8012C18.2544 23.8357 18.4301 22.8206 18.4361 21.7975C18.4361 21.5271 18.4361 21.2568 18.4361 20.9965L29.1003 12.6962C30.3043 13.951 31.9065 14.7473 33.6323 14.9484C35.3581 15.1495 37.1 14.743 38.5594 13.7986C40.0188 12.8541 41.1048 11.4305 41.6313 9.77184C42.1578 8.11314 42.092 6.32264 41.4451 4.70724C40.7982 3.09184 39.6106 1.75214 38.0858 0.9178C36.561 0.0834544 34.794 -0.193582 33.0877 0.134179C31.3813 0.46194 29.8419 1.37409 28.7333 2.71426C27.6247 4.05444 27.016 5.73918 27.0114 7.47971C27.0083 8.15584 27.0957 8.82934 27.2713 9.48219L17.2768 17.2518C16.3253 15.5472 14.8592 14.1883 13.0889 13.3703C11.3187 12.5522 9.33518 12.3171 7.42318 12.6985C5.51119 13.08 3.76898 14.0585 2.44661 15.4935C1.12423 16.9286 0.289682 18.7464 0.062731 20.6862C-0.16422 22.6259 0.228098 24.5879 1.18338 26.2904C2.13866 27.9929 3.60778 29.3484 5.3799 30.1624C7.15202 30.9765 9.13603 31.2072 11.0472 30.8214C12.9583 30.4356 14.6983 29.4532 16.0174 28.0152L26.8116 35.3743C26.6958 36.0154 26.6356 36.6653 26.6317 37.3167C26.6356 39.4324 27.2653 41.4994 28.4413 43.2567C29.6172 45.0139 31.2867 46.3827 33.2387 47.19C35.1907 47.9974 37.3378 48.2071 39.4088 47.7926C41.4797 47.3782 43.3816 46.3582 44.8742 44.8615C46.3668 43.3649 47.3832 41.4586 47.7949 39.3836C48.2067 37.3086 47.9954 35.1578 47.1877 33.2031C46.38 31.2483 45.0121 29.5772 43.2568 28.4007C41.5016 27.2243 39.4377 26.5954 37.3258 26.5934ZM34.4574 3.685C35.2098 3.68103 35.9465 3.90106 36.5739 4.31715C37.2013 4.73324 37.6912 5.32666 37.9814 6.02211C38.2716 6.71755 38.3491 7.48369 38.204 8.22333C38.0589 8.96296 37.6978 9.64275 37.1665 10.1765C36.6351 10.7102 35.9575 11.0737 35.2196 11.221C34.4816 11.3683 33.7167 11.2927 33.0217 11.0038C32.3267 10.7149 31.7331 10.2257 31.3161 9.59829C30.8991 8.97086 30.6775 8.23348 30.6794 7.47971C30.6794 6.47502 31.0772 5.51134 31.7854 4.79998C32.4936 4.08862 33.4545 3.68765 34.4574 3.685ZM9.23113 27.3343C8.13716 27.3383 7.06661 27.017 6.15508 26.411C5.24354 25.805 4.53202 24.9416 4.11063 23.9303C3.68924 22.9189 3.57693 21.805 3.78793 20.7296C3.99893 19.6543 4.52374 18.6658 5.2959 17.8895C6.06806 17.1131 7.05284 16.5838 8.12551 16.3685C9.19818 16.1532 10.3105 16.2617 11.3216 16.6802C12.3327 17.0987 13.1971 17.8083 13.8053 18.7193C14.4135 19.6302 14.7381 20.7015 14.7381 21.7975C14.7394 22.5233 14.598 23.2422 14.322 23.9133C14.046 24.5843 13.6407 25.1943 13.1293 25.7085C12.6179 26.2226 12.0105 26.6308 11.3416 26.9098C10.6728 27.1888 9.95564 27.333 9.23113 27.3343ZM37.3258 44.3555C35.9421 44.3555 34.5895 43.9444 33.439 43.1743C32.2884 42.4042 31.3917 41.3096 30.8622 40.0289C30.3327 38.7482 30.1941 37.339 30.4641 35.9794C30.734 34.6199 31.4003 33.3711 32.3788 32.3909C33.3572 31.4107 34.6038 30.7432 35.9609 30.4727C37.3181 30.2023 38.7248 30.3411 40.0032 30.8716C41.2815 31.4021 42.3742 32.3004 43.1429 33.4529C43.9117 34.6055 44.322 35.9606 44.322 37.3468C44.3167 39.2021 43.5773 40.9797 42.2658 42.2897C40.9544 43.5998 39.1779 44.3355 37.3258 44.3354V44.3555Z" fill="white"/>
</svg>
